1 10 20
100 200 125
201 210 89
900 1000 174
1 2 2
1 999999 525
80 258 128
1337 7331 262
97392 784942 509
171171 911016 525
234534 954333 525
11 11111 268
2232 4343 238
3453 65432 340
5656 7787 262
345 958696 525
888 999 174
2245 7873 262
333 777 171
877 487383 449
9611 28368 308
4135 18399 279
40195 6847 324
856 297774 443
669 8187 262
290 9890 262
7051 67328 340
3521 47351 324
9315 34498 311
3839 26365 282
1694 21888 279
801 2531 209
8589 96535 351
4116 24392 282
5301 59522 340
716 334682 443
7583 40527 324
6948 85343 351
4071 37698 324
3129 92734 351
6669 17367 276
3496 69978 340
4802 89129 351
3711 15203 276
3942 26944 308
1610 17942 279
1611 92315 351
1872 20255 279
9205 5246 262
6067 2307 238
4625 9622 262
2146 30375 308
2840 15795 276
6378 74623 340
2865 97609 351
6133 12914 268
4455 89744 351
9866 95535 351
7301 58586 340
3477 6830 262
5106 64665 340
3628 92920 351
4280 77785 351
5647 99113 351
4887 66931 340
7677 6871 257
4810 41628 324
2796 11998 268
16 255341 443
226 839652 525
1953 51346 324
3709 10739 262
5937 72814 340
63 312 128
509 74902 340
6086 2436 238
4476 5853 236
5742 62085 340
4011 41399 324
1793 91395 351
1875 61232 340
6717 89771 351
3097 31245 308
5707 68627 340
7567 2192 262
9463 47791 324
8873 64925 340
108 88255 351
664 15287 276
101 65457 340
5527 64653 340
6749 21908 279
3674 70997 340
9425 14944 276
1188 68315 340
6043 32485 308
8719 36351 324
4492 9938 262
8262 21608 279
4285 31693 308
7204 68687 340
6589 99894 351
6737 9863 260
8061 24816 282
2594 42223 324
1937 2948 217
8326 19057 279
3923 29681 308
2705 20935 279
2162 83252 351
9306 34513 311
5463 81191 351
3772 12759 268
8546 71146 340
5805 35969 324
8381 39191 324
9763 23244 279
5597 39314 324
6490 95453 351
1668 13147 268
996999 997999 440
